// Jest Snapshot v1, https://goo.gl/fbAQLP

exports[`Snapshots Renders 1`] = `
.emotion-0 {
  box-sizing: border-box;
  display: -webkit-box;
  display: -webkit-flex;
  display: -ms-flexbox;
  display: flex;
  -webkit-flex: initial;
  -ms-flex: initial;
  flex: initial;
  -webkit-flex-direction: column;
  -ms-flex-direction: column;
  flex-direction: column;
  -webkit-flex-wrap: nowrap;
  -ms-flex-wrap: nowrap;
  flex-wrap: nowrap;
  width: 100%;
  max-width: 100%;
  background: transparent;
  border: 0px solid #FFFFFF;
  opacity: 1;
  margin-bottom: 12px;
  margin-left: 0;
  margin-right: 0;
  margin-top: 0;
  -webkit-align-items: center;
  -webkit-box-align: center;
  -ms-flex-align: center;
  align-items: center;
}

.emotion-0:focus {
  outline: 0px solid #FFFFFF;
}

.emotion-0>img {
  max-width: 100%;
  max-height: 100%;
}

.emotion-1 {
  box-sizing: border-box;
  display: -webkit-box;
  display: -webkit-flex;
  display: -ms-flexbox;
  display: flex;
  -webkit-flex: initial;
  -ms-flex: initial;
  flex: initial;
  -webkit-flex-direction: row;
  -ms-flex-direction: row;
  flex-direction: row;
  -webkit-flex-wrap: nowrap;
  -ms-flex-wrap: nowrap;
  flex-wrap: nowrap;
  width: 100%;
  max-width: 100%;
  background: #FFFFFF;
  border: 0px solid #FFFFFF;
  opacity: 1;
  margin-bottom: 0;
  margin-left: 0;
  margin-right: 0;
  margin-top: 0;
  padding-bottom: 20px;
  padding-left: 24px;
  padding-right: 24px;
  padding-top: 20px;
  -webkit-align-items: center;
  -webkit-box-align: center;
  -ms-flex-align: center;
  align-items: center;
  border-radius: 5px;
  height: 118px;
  -webkit-box-pack: justify;
  -webkit-justify-content: space-between;
  -ms-flex-pack: justify;
  justify-content: space-between;
  box-shadow: 0 1px 4px 0 rgba(0,0,0,0.2);
}

.emotion-1:focus {
  outline: 0px solid #FFFFFF;
}

.emotion-1>img {
  max-width: 100%;
  max-height: 100%;
}

.emotion-2 {
  box-sizing: border-box;
  display: -webkit-box;
  display: -webkit-flex;
  display: -ms-flexbox;
  display: flex;
  -webkit-flex: initial;
  -ms-flex: initial;
  flex: initial;
  -webkit-flex-direction: row;
  -ms-flex-direction: row;
  flex-direction: row;
  -webkit-flex-wrap: nowrap;
  -ms-flex-wrap: nowrap;
  flex-wrap: nowrap;
  width: auto;
  max-width: 100%;
  background: transparent;
  border: 0px solid #FFFFFF;
  opacity: 1;
  margin-bottom: 0;
  margin-left: 0;
  margin-right: 0;
  margin-top: 0;
}

.emotion-2:focus {
  outline: 0px solid #FFFFFF;
}

.emotion-2>img {
  max-width: 100%;
  max-height: 100%;
}

.emotion-3 {
  font-weight: 600;
  line-height: 13px;
  font-size: 10px;
  display: inline-block;
  color: #242D3C;
  font-family: Source Sans Pro,sans-serif;
  width: auto;
  text-overflow: initial;
  max-width: 100%;
  overflow: visible;
}

.emotion-3>* {
  color: #242D3C;
}

.emotion-4 {
  box-sizing: border-box;
  display: -webkit-box;
  display: -webkit-flex;
  display: -ms-flexbox;
  display: flex;
  -webkit-flex: initial;
  -ms-flex: initial;
  flex: initial;
  -webkit-flex-direction: row;
  -ms-flex-direction: row;
  flex-direction: row;
  -webkit-flex-wrap: nowrap;
  -ms-flex-wrap: nowrap;
  flex-wrap: nowrap;
  width: auto;
  max-width: 100%;
  background: transparent;
  border: 0px solid #FFFFFF;
  opacity: 1;
  margin-bottom: 0;
  margin-left: 4px;
  margin-right: 0;
  margin-top: 0;
}

.emotion-4:focus {
  outline: 0px solid #FFFFFF;
}

.emotion-4>img {
  max-width: 100%;
  max-height: 100%;
}

.emotion-5 {
  box-sizing: border-box;
  display: -webkit-box;
  display: -webkit-flex;
  display: -ms-flexbox;
  display: flex;
  -webkit-flex: initial;
  -ms-flex: initial;
  flex: initial;
  -webkit-flex-direction: column;
  -ms-flex-direction: column;
  flex-direction: column;
  -webkit-flex-wrap: nowrap;
  -ms-flex-wrap: nowrap;
  flex-wrap: nowrap;
  width: 329px;
  max-width: 100%;
  background: transparent;
  border: 0px solid #FFFFFF;
  opacity: 1;
  margin-bottom: 0;
  margin-left: 0;
  margin-right: 0;
  margin-top: 0;
}

.emotion-5:focus {
  outline: 0px solid #FFFFFF;
}

.emotion-5>img {
  max-width: 100%;
  max-height: 100%;
}

.emotion-7 {
  box-sizing: border-box;
  display: -webkit-box;
  display: -webkit-flex;
  display: -ms-flexbox;
  display: flex;
  -webkit-flex: initial;
  -ms-flex: initial;
  flex: initial;
  -webkit-flex-direction: row;
  -ms-flex-direction: row;
  flex-direction: row;
  -webkit-flex-wrap: nowrap;
  -ms-flex-wrap: nowrap;
  flex-wrap: nowrap;
  width: auto;
  max-width: 100%;
  background: transparent;
  border: 0px solid #FFFFFF;
  opacity: 1;
  margin-bottom: 0;
  margin-left: 0;
  margin-right: 0;
  margin-top: 2px;
}

.emotion-7:focus {
  outline: 0px solid #FFFFFF;
}

.emotion-7>img {
  max-width: 100%;
  max-height: 100%;
}

.emotion-8 {
  line-height: 13px;
  font-size: 10px;
  display: inline-block;
  color: #82828B;
  font-family: Source Sans Pro,sans-serif;
  width: auto;
  text-overflow: initial;
  max-width: 100%;
  overflow: visible;
}

.emotion-8>* {
  color: #82828B;
}

.emotion-9 {
  box-sizing: border-box;
  display: -webkit-box;
  display: -webkit-flex;
  display: -ms-flexbox;
  display: flex;
  -webkit-flex: initial;
  -ms-flex: initial;
  flex: initial;
  -webkit-flex-direction: row;
  -ms-flex-direction: row;
  flex-direction: row;
  -webkit-flex-wrap: nowrap;
  -ms-flex-wrap: nowrap;
  flex-wrap: nowrap;
  width: auto;
  max-width: 100%;
  background: transparent;
  border: 0px solid #FFFFFF;
  opacity: 1;
  margin-bottom: 0;
  margin-left: 0;
  margin-right: 0;
  margin-top: 6px;
}

.emotion-9:focus {
  outline: 0px solid #FFFFFF;
}

.emotion-9>img {
  max-width: 100%;
  max-height: 100%;
}

.emotion-11 {
  box-sizing: border-box;
  display: -webkit-box;
  display: -webkit-flex;
  display: -ms-flexbox;
  display: flex;
  -webkit-flex: initial;
  -ms-flex: initial;
  flex: initial;
  -webkit-flex-direction: row;
  -ms-flex-direction: row;
  flex-direction: row;
  -webkit-flex-wrap: nowrap;
  -ms-flex-wrap: nowrap;
  flex-wrap: nowrap;
  width: auto;
  max-width: 100%;
  background: transparent;
  border: 0px solid #FFFFFF;
  opacity: 1;
  margin-bottom: 0;
  margin-left: 0;
  margin-right: 0;
  margin-top: 0;
  -webkit-box-flex: 1;
  -webkit-flex-grow: 1;
  -ms-flex-positive: 1;
  flex-grow: 1;
  -webkit-box-pack: center;
  -webkit-justify-content: center;
  -ms-flex-pack: center;
  justify-content: center;
}

.emotion-11:focus {
  outline: 0px solid #FFFFFF;
}

.emotion-11>img {
  max-width: 100%;
  max-height: 100%;
}

.emotion-12 {
  height: 65px;
}

.emotion-13 {
  box-sizing: border-box;
  display: -webkit-box;
  display: -webkit-flex;
  display: -ms-flexbox;
  display: flex;
  -webkit-flex: initial;
  -ms-flex: initial;
  flex: initial;
  -webkit-flex-direction: row;
  -ms-flex-direction: row;
  flex-direction: row;
  -webkit-flex-wrap: nowrap;
  -ms-flex-wrap: nowrap;
  flex-wrap: nowrap;
  width: auto;
  max-width: 100%;
  background: transparent;
  border: 0px solid #FFFFFF;
  opacity: 1;
  margin-bottom: 0;
  margin-left: 0;
  margin-right: 0;
  margin-top: 0;
  height: 16px;
}

.emotion-13:focus {
  outline: 0px solid #FFFFFF;
}

.emotion-13>img {
  max-width: 100%;
  max-height: 100%;
}

.emotion-14 {
  box-sizing: border-box;
  display: -webkit-box;
  display: -webkit-flex;
  display: -ms-flexbox;
  display: flex;
  -webkit-flex: initial;
  -ms-flex: initial;
  flex: initial;
  -webkit-flex-direction: row;
  -ms-flex-direction: row;
  flex-direction: row;
  -webkit-flex-wrap: nowrap;
  -ms-flex-wrap: nowrap;
  flex-wrap: nowrap;
  width: 100%;
  max-width: 100%;
  background: #FFFFFF;
  border: 0px solid #FFFFFF;
  opacity: 1;
  margin-bottom: 0;
  margin-left: 0;
  margin-right: 0;
  margin-top: 0;
  padding-bottom: 20px;
  padding-left: 24px;
  padding-right: 24px;
  padding-top: 20px;
  -webkit-align-items: center;
  -webkit-box-align: center;
  -ms-flex-align: center;
  align-items: center;
  border-radius: 5px;
  height: 96px;
  -webkit-box-pack: justify;
  -webkit-justify-content: space-between;
  -ms-flex-pack: justify;
  justify-content: space-between;
  box-shadow: 0 1px 4px 0 rgba(0,0,0,0.2);
}

.emotion-14:focus {
  outline: 0px solid #FFFFFF;
}

.emotion-14>img {
  max-width: 100%;
  max-height: 100%;
}

.emotion-23 {
  height: 50px;
}

<div>
  <div
    class="emotion-0"
  >
    <div
      class="emotion-1"
    >
      <div
        class="emotion-2"
      >
        <span
          class="text emotion-3"
        >
          1.
        </span>
        <div
          class="emotion-4"
        />
        <div
          class="emotion-5"
        >
          <span
            class="text emotion-3"
          >
            Add liquidity (XTZ + any FA1.2 token)
          </span>
          <div
            class="emotion-7"
          />
          <span
            class="text emotion-8"
          >
            Add equivalent amounts of XTZ and another FA1.2 token to the Liquidity Pool. These tokens provide liquidity for other users to make exchanges with Dexter.
          </span>
          <div
            class="emotion-9"
          />
          <span
            class="text emotion-8"
          >
            Receive a quantity of Dexter Pool Tokens representing the underlying pair of tokens you added to the Liquidity Pool.
          </span>
        </div>
      </div>
      <div
        class="emotion-11"
      >
        <img
          class="emotion-12"
          src="/img/liquidity-explainer-1.png"
        />
      </div>
    </div>
    <div
      class="emotion-13"
    />
    <div
      class="emotion-14"
    >
      <div
        class="emotion-2"
      >
        <span
          class="text emotion-3"
        >
          2.
        </span>
        <div
          class="emotion-4"
        />
        <div
          class="emotion-5"
        >
          <span
            class="text emotion-3"
          >
            Earn liquidity fees
          </span>
          <div
            class="emotion-7"
          />
          <span
            class="text emotion-8"
          >
            Earn a proportional share of exchange liquidity fees (0.3%) for the duration you provide liquidity. You'll also earn baking rewards for the XTZ you've added to the pool.
          </span>
        </div>
      </div>
      <div
        class="emotion-11"
      >
        <img
          class="emotion-23"
          src="/img/liquidity-explainer-2.png"
        />
      </div>
    </div>
    <div
      class="emotion-13"
    />
    <div
      class="emotion-14"
    >
      <div
        class="emotion-2"
      >
        <span
          class="text emotion-3"
        >
          3.
        </span>
        <div
          class="emotion-4"
        />
        <div
          class="emotion-5"
        >
          <span
            class="text emotion-3"
          >
            Remove liquidity anytime
          </span>
          <div
            class="emotion-7"
          />
          <span
            class="text emotion-8"
          >
            Remove the liquidity you've provided at any time by redeeming your Dexter Pool Tokens - including the tokens you've earned from liquidity fees - and receive corresponding amounts of your underlying asset pair in return.
          </span>
        </div>
      </div>
      <div
        class="emotion-11"
      >
        <img
          class="emotion-12"
          src="/img/liquidity-explainer-3.png"
        />
      </div>
    </div>
  </div>
</div>
`;
