// Jest Snapshot v1, https://goo.gl/fbAQLP

exports[`Snapshots Renders 1`] = `
.emotion-0 {
  box-sizing: border-box;
  display: -webkit-box;
  display: -webkit-flex;
  display: -ms-flexbox;
  display: flex;
  -webkit-flex: initial;
  -ms-flex: initial;
  flex: initial;
  -webkit-flex-direction: column;
  -ms-flex-direction: column;
  flex-direction: column;
  -webkit-flex-wrap: nowrap;
  -ms-flex-wrap: nowrap;
  flex-wrap: nowrap;
  width: auto;
  max-width: 100%;
  background: transparent;
  border: 0px solid #FFFFFF;
  opacity: 1;
  margin-bottom: 0;
  margin-left: 0;
  margin-right: 0;
  margin-top: 0;
}

.emotion-0:focus {
  outline: 0px solid #FFFFFF;
}

.emotion-0>img {
  max-width: 100%;
  max-height: 100%;
}

.emotion-1 {
  box-sizing: border-box;
  display: -webkit-box;
  display: -webkit-flex;
  display: -ms-flexbox;
  display: flex;
  -webkit-flex: initial;
  -ms-flex: initial;
  flex: initial;
  -webkit-flex-direction: row;
  -ms-flex-direction: row;
  flex-direction: row;
  -webkit-flex-wrap: wrap;
  -ms-flex-wrap: wrap;
  flex-wrap: wrap;
  width: auto;
  max-width: 100%;
  background: transparent;
  border: 0px solid #FFFFFF;
  opacity: 1;
  margin-bottom: 0;
  margin-left: 0;
  margin-right: 0;
  margin-top: 12px;
  padding-left: 16px;
  padding-right: 16px;
  -webkit-align-items: center;
  -webkit-box-align: center;
  -ms-flex-align: center;
  align-items: center;
  -webkit-box-flex: 1;
  -webkit-flex-grow: 1;
  -ms-flex-positive: 1;
  flex-grow: 1;
  -webkit-box-pack: center;
  -webkit-justify-content: center;
  -ms-flex-pack: center;
  justify-content: center;
}

.emotion-1:focus {
  outline: 0px solid #FFFFFF;
}

.emotion-1>img {
  max-width: 100%;
  max-height: 100%;
}

.emotion-2 {
  font-weight: 600;
  line-height: 13px;
  font-size: 10px;
  display: inline-block;
  color: #62626E;
  font-family: Source Sans Pro,sans-serif;
  width: auto;
  text-overflow: initial;
  max-width: 100%;
  overflow: visible;
}

.emotion-2>* {
  color: #62626E;
}

.emotion-2::after {
  content: "\\00a0 ";
}

.emotion-3 {
  box-sizing: border-box;
  display: -webkit-box;
  display: -webkit-flex;
  display: -ms-flexbox;
  display: flex;
  -webkit-flex: initial;
  -ms-flex: initial;
  flex: initial;
  -webkit-flex-direction: row;
  -ms-flex-direction: row;
  flex-direction: row;
  -webkit-flex-wrap: wrap;
  -ms-flex-wrap: wrap;
  flex-wrap: wrap;
  width: auto;
  max-width: 100%;
  background: transparent;
  border: 0px solid #FFFFFF;
  opacity: 1;
  margin-bottom: 0;
  margin-left: 0;
  margin-right: 0;
  margin-top: 0;
  -webkit-box-pack: center;
  -webkit-justify-content: center;
  -ms-flex-pack: center;
  justify-content: center;
}

.emotion-3:focus {
  outline: 0px solid #FFFFFF;
}

.emotion-3>img {
  max-width: 100%;
  max-height: 100%;
}

.emotion-4 {
  line-height: 13px;
  font-size: 10px;
  display: inline-block;
  color: #82828B;
  font-family: Source Sans Pro,sans-serif;
  width: auto;
  text-overflow: initial;
  max-width: 100%;
  overflow: visible;
}

.emotion-4>* {
  color: #82828B;
}

.emotion-4::after {
  content: "\\00a0 ";
}

.emotion-5 {
  line-height: 13px;
  font-size: 10px;
  display: inline-block;
  color: #2B3B9B;
  font-family: Source Sans Pro,sans-serif;
  width: auto;
  text-overflow: initial;
  max-width: 100%;
  overflow: visible;
}

.emotion-5>* {
  color: #2B3B9B;
}

.emotion-6 {
  line-height: 13px;
  font-size: 10px;
  display: inline-block;
  color: #82828B;
  font-family: Source Sans Pro,sans-serif;
  width: auto;
  text-overflow: initial;
  max-width: 100%;
  overflow: visible;
}

.emotion-6>* {
  color: #82828B;
}

<div>
  <div
    class="emotion-0"
  >
    <div
      class="emotion-1"
    >
      <span
        class="text emotion-2"
      >
        Interested in using Dexter on mobile?
      </span>
      <div
        class="emotion-3"
      >
        <span
          class="text emotion-4"
        >
          Try
        </span>
        <span
          class="text emotion-5"
        >
          <a
            href="https://magmawallet.io/"
            target="_blank"
          >
            Magma
          </a>
        </span>
        <span
          class="text emotion-6"
        >
          , the Tezos wallet app from camlCase,
        </span>
        <span
          class="text emotion-6"
        >
          the same team behind Dexter.
        </span>
      </div>
    </div>
  </div>
</div>
`;
