{
    "prim": "Pair",
    "args": [
        {
            "int": "10592"
        },
        {
            "prim": "Pair",
            "args": [
                {
                    "prim": "Pair",
                    "args": [
                        {
                            "prim": "False"
                        },
                        {
                            "prim": "Pair",
                            "args": [
                                {
                                    "prim": "False"
                                },
                                {
                                    "int": "1000000"
                                }
                            ]
                        }
                    ]
                },
                {
                    "prim": "Pair",
                    "args": [
                        {
                            "prim": "Pair",
                            "args": [
                                {
                                    "string": "tz1S82rGFZK8cVbNDpP1Hf9VhTUa4W8oc2WV"
                                },
                                {
                                    "string": "KT1DFePJNWuZmTQt2HbVfYzAAJViZgSggpyJ"
                                }
                            ]
                        },
                        {
                            "prim": "Pair",
                            "args": [
                                {
                                    "int": "10000000"
                                },
                                {
                                    "int": "1000000"
                                }
                            ]
                        }
                    ]
                }
            ]
        }
    ]
}

