{
    "balance_updates": [
        {
            "kind": "contract",
            "contract": "tz1R3vJ5TV8Y5pVj8dicBR23Zv8JArusDkYr",
            "change": "-2501"
        },
        {
            "kind": "freezer",
            "category": "fees",
            "delegate": "tz1VxS7ff4YnZRs8b4mMP4WaMVpoQjuo1rjf",
            "cycle": 305,
            "change": "2501"
        }
    ],
    "operation_result": {
        "status": "applied",
        "storage": {
            "prim": "Pair",
            "args": [
                {
                    "prim": "Pair",
                    "args": [
                        {
                            "int": "1596701433"
                        },
                        {
                            "int": "44025"
                        }
                    ]
                },
                {
                    "bytes": "00003b5d4596c032347b72fb51f688c45200d0cb50db"
                }
            ]
        },
        "consumed_gas": "21787",
        "storage_size": "527"
    }
}
