[
    {
        "type": "transaction",
        "id": 33695530,
        "level": 1165847,
        "timestamp": "2020-10-10T23:58:44Z",
        "block": "BL2RtSw3bHYKnQ33YhXLKFeziVjz881cdzNTtCTzPra7cDCmcU1",
        "hash": "opJbMK4TbPo3g3rUHAk3aYZ9xynjGmZVMW5wZ8bSyahJT1xosgu",
        "counter": 7224490,
        "initiator": {
            "address": "tz1gV3LBv1XmVEkdeRTjuUdurvCf8P85eALM"
        },
        "sender": {
            "alias": "Dexter USDtz/XTZ",
            "address": "KT1Puc9St8wdNoGtLiD2WXaHbWU7styaxYhD"
        },
        "nonce": 0,
        "gasLimit": 0,
        "gasUsed": 10207,
        "storageLimit": 0,
        "storageUsed": 0,
        "bakerFee": 0,
        "storageFee": 0,
        "allocationFee": 0,
        "target": {
            "address": "tz1gV3LBv1XmVEkdeRTjuUdurvCf8P85eALM"
        },
        "amount": 912141697,
        "status": "applied",
        "hasInternals": false
    },
    {
        "type": "transaction",
        "id": 33695529,
        "level": 1165847,
        "timestamp": "2020-10-10T23:58:44Z",
        "block": "BL2RtSw3bHYKnQ33YhXLKFeziVjz881cdzNTtCTzPra7cDCmcU1",
        "hash": "opJbMK4TbPo3g3rUHAk3aYZ9xynjGmZVMW5wZ8bSyahJT1xosgu",
        "counter": 7224490,
        "initiator": {
            "address": "tz1gV3LBv1XmVEkdeRTjuUdurvCf8P85eALM"
        },
        "sender": {
            "alias": "Dexter USDtz/XTZ",
            "address": "KT1Puc9St8wdNoGtLiD2WXaHbWU7styaxYhD"
        },
        "nonce": 1,
        "gasLimit": 0,
        "gasUsed": 119900,
        "storageLimit": 0,
        "storageUsed": 0,
        "bakerFee": 0,
        "storageFee": 0,
        "allocationFee": 0,
        "target": {
            "alias": "USDtz",
            "address": "KT1LN4LPSqTMS7Sd2CJw4bbDGRkMv2t68Fy9"
        },
        "amount": 0,
        "parameters": "{\"entrypoint\":\"transfer\",\"value\":{\"prim\":\"Pair\",\"args\":[{\"bytes\":\"01a819ed5da3593505f8085b2cb11a85fe5be237c400\"},{\"prim\":\"Pair\",\"args\":[{\"bytes\":\"0000e4a76e6b5d648570b5496912e70eeb4eebf8b1d8\"},{\"int\":\"1956058939\"}]}]}}",
        "status": "applied",
        "hasInternals": false
    },
    {
        "type": "transaction",
        "id": 33695528,
        "level": 1165847,
        "timestamp": "2020-10-10T23:58:44Z",
        "block": "BL2RtSw3bHYKnQ33YhXLKFeziVjz881cdzNTtCTzPra7cDCmcU1",
        "hash": "opJbMK4TbPo3g3rUHAk3aYZ9xynjGmZVMW5wZ8bSyahJT1xosgu",
        "counter": 7224490,
        "sender": {
            "address": "tz1gV3LBv1XmVEkdeRTjuUdurvCf8P85eALM"
        },
        "gasLimit": 483007,
        "gasUsed": 352800,
        "storageLimit": 0,
        "storageUsed": 0,
        "bakerFee": 48750,
        "storageFee": 0,
        "allocationFee": 0,
        "target": {
            "alias": "Dexter USDtz/XTZ",
            "address": "KT1Puc9St8wdNoGtLiD2WXaHbWU7styaxYhD"
        },
        "amount": 0,
        "parameters": "{\"entrypoint\":\"removeLiquidity\",\"value\":{\"prim\":\"Pair\",\"args\":[{\"prim\":\"Pair\",\"args\":[{\"string\":\"tz1gV3LBv1XmVEkdeRTjuUdurvCf8P85eALM\"},{\"prim\":\"Pair\",\"args\":[{\"string\":\"tz1gV3LBv1XmVEkdeRTjuUdurvCf8P85eALM\"},{\"int\":\"892569053\"}]}]},{\"prim\":\"Pair\",\"args\":[{\"int\":\"909405271\"},{\"prim\":\"Pair\",\"args\":[{\"int\":\"1950190762\"},{\"string\":\"2020-10-11T00:17:37.231Z\"}]}]}]}}",
        "status": "applied",
        "hasInternals": true
    },
    {
        "type": "transaction",
        "id": 33697180,
        "level": 1165911,
        "timestamp": "2020-10-11T01:02:44Z",
        "block": "BLdN6v8DBmsJXrHXUmC2zz7zPK5x8iYzsYLkx66ofgg8qhotGdn",
        "hash": "oo8huv677AxRTa7tj4ZKRSrtrn66SmN3QrAk3xmG7cqTPh1VacP",
        "counter": 7224499,
        "initiator": {
            "address": "tz1gV3LBv1XmVEkdeRTjuUdurvCf8P85eALM"
        },
        "sender": {
            "alias": "Dexter tzBTC/XTZ",
            "address": "KT1DrJV8vhkdLEj76h1H9Q4irZDqAkMPo1Qf"
        },
        "nonce": 0,
        "gasLimit": 0,
        "gasUsed": 237853,
        "storageLimit": 0,
        "storageUsed": 0,
        "bakerFee": 0,
        "storageFee": 0,
        "allocationFee": 0,
        "target": {
            "alias": "tzBTC",
            "address": "KT1PWx2mnDueood7fEmfbBDKx1D9BAnnXitn"
        },
        "amount": 0,
        "parameters": "{\"entrypoint\":\"transfer\",\"value\":{\"prim\":\"Pair\",\"args\":[{\"bytes\":\"0000e4a76e6b5d648570b5496912e70eeb4eebf8b1d8\"},{\"prim\":\"Pair\",\"args\":[{\"bytes\":\"0139c8ade2617663981fa2b87592c9ad92714d14c200\"},{\"int\":\"19089730\"}]}]}}",
        "status": "applied",
        "hasInternals": false
    },
    {
        "type": "transaction",
        "id": 33697179,
        "level": 1165911,
        "timestamp": "2020-10-11T01:02:44Z",
        "block": "BLdN6v8DBmsJXrHXUmC2zz7zPK5x8iYzsYLkx66ofgg8qhotGdn",
        "hash": "oo8huv677AxRTa7tj4ZKRSrtrn66SmN3QrAk3xmG7cqTPh1VacP",
        "counter": 7224499,
        "sender": {
            "address": "tz1gV3LBv1XmVEkdeRTjuUdurvCf8P85eALM"
        },
        "gasLimit": 618083,
        "gasUsed": 380130,
        "storageLimit": 0,
        "storageUsed": 0,
        "bakerFee": 62165,
        "storageFee": 0,
        "allocationFee": 0,
        "target": {
            "alias": "Dexter tzBTC/XTZ",
            "address": "KT1DrJV8vhkdLEj76h1H9Q4irZDqAkMPo1Qf"
        },
        "amount": 1014983249,
        "parameters": "{\"entrypoint\":\"addLiquidity\",\"value\":{\"prim\":\"Pair\",\"args\":[{\"prim\":\"Pair\",\"args\":[{\"string\":\"tz1gV3LBv1XmVEkdeRTjuUdurvCf8P85eALM\"},{\"int\":\"1\"}]},{\"prim\":\"Pair\",\"args\":[{\"int\":\"19089730\"},{\"string\":\"2020-10-11T01:21:57.822Z\"}]}]}}",
        "status": "applied",
        "hasInternals": true
    },
    {
        "type": "transaction",
        "id": 33697178,
        "level": 1165911,
        "timestamp": "2020-10-11T01:02:44Z",
        "block": "BLdN6v8DBmsJXrHXUmC2zz7zPK5x8iYzsYLkx66ofgg8qhotGdn",
        "hash": "oo8huv677AxRTa7tj4ZKRSrtrn66SmN3QrAk3xmG7cqTPh1VacP",
        "counter": 7224498,
        "sender": {
            "address": "tz1gV3LBv1XmVEkdeRTjuUdurvCf8P85eALM"
        },
        "gasLimit": 205523,
        "gasUsed": 205423,
        "storageLimit": 0,
        "storageUsed": 0,
        "bakerFee": 20909,
        "storageFee": 0,
        "allocationFee": 0,
        "target": {
            "alias": "tzBTC",
            "address": "KT1PWx2mnDueood7fEmfbBDKx1D9BAnnXitn"
        },
        "amount": 0,
        "parameters": "{\"entrypoint\":\"approve\",\"value\":{\"prim\":\"Pair\",\"args\":[{\"string\":\"KT1DrJV8vhkdLEj76h1H9Q4irZDqAkMPo1Qf\"},{\"int\":\"19089730\"}]}}",
        "status": "applied",
        "hasInternals": false
    },
    {
        "type": "transaction",
        "id": 33697127,
        "level": 1165909,
        "timestamp": "2020-10-11T01:00:44Z",
        "block": "BKvbxS9NHZ1znW5nEzhi79zV6ddTdouU11y3fCxi5D8W1BNs3ZP",
        "hash": "opJeQutU23hjBdZhDnhEKw45vTYB787nE6CDMWAqMQ8CtBRWyyt",
        "counter": 7224497,
        "initiator": {
            "address": "tz1gV3LBv1XmVEkdeRTjuUdurvCf8P85eALM"
        },
        "sender": {
            "alias": "Dexter tzBTC/XTZ",
            "address": "KT1DrJV8vhkdLEj76h1H9Q4irZDqAkMPo1Qf"
        },
        "nonce": 0,
        "gasLimit": 0,
        "gasUsed": 235315,
        "storageLimit": 0,
        "storageUsed": 0,
        "bakerFee": 0,
        "storageFee": 0,
        "allocationFee": 0,
        "target": {
            "alias": "tzBTC",
            "address": "KT1PWx2mnDueood7fEmfbBDKx1D9BAnnXitn"
        },
        "amount": 0,
        "parameters": "{\"entrypoint\":\"transfer\",\"value\":{\"prim\":\"Pair\",\"args\":[{\"bytes\":\"0139c8ade2617663981fa2b87592c9ad92714d14c200\"},{\"prim\":\"Pair\",\"args\":[{\"bytes\":\"0000e4a76e6b5d648570b5496912e70eeb4eebf8b1d8\"},{\"int\":\"19089730\"}]}]}}",
        "status": "applied",
        "hasInternals": false
    },
    {
        "type": "transaction",
        "id": 33695761,
        "level": 1165855,
        "timestamp": "2020-10-11T00:06:44Z",
        "block": "BLZYmTkezVieNS5CSgiiZGYheqbCZ1ab2oA9MFPeadDV6VB3C5b",
        "hash": "ooSiihVB3jYX6s91pSZ3Dk5Wuznj3M3UyVDxoesgyLo5waUeZwH",
        "counter": 7224496,
        "initiator": {
            "address": "tz1gV3LBv1XmVEkdeRTjuUdurvCf8P85eALM"
        },
        "sender": {
            "alias": "Dexter USDtz/XTZ",
            "address": "KT1Puc9St8wdNoGtLiD2WXaHbWU7styaxYhD"
        },
        "nonce": 1,
        "gasLimit": 0,
        "gasUsed": 121398,
        "storageLimit": 0,
        "storageUsed": 0,
        "bakerFee": 0,
        "storageFee": 0,
        "allocationFee": 0,
        "target": {
            "alias": "USDtz",
            "address": "KT1LN4LPSqTMS7Sd2CJw4bbDGRkMv2t68Fy9"
        },
        "amount": 0,
        "parameters": "{\"entrypoint\":\"transfer\",\"value\":{\"prim\":\"Pair\",\"args\":[{\"bytes\":\"0000e4a76e6b5d648570b5496912e70eeb4eebf8b1d8\"},{\"prim\":\"Pair\",\"args\":[{\"bytes\":\"01a819ed5da3593505f8085b2cb11a85fe5be237c400\"},{\"int\":\"726896912\"}]}]}}",
        "status": "applied",
        "hasInternals": false
    },
    {
        "type": "transaction",
        "id": 33695760,
        "level": 1165855,
        "timestamp": "2020-10-11T00:06:44Z",
        "block": "BLZYmTkezVieNS5CSgiiZGYheqbCZ1ab2oA9MFPeadDV6VB3C5b",
        "hash": "ooSiihVB3jYX6s91pSZ3Dk5Wuznj3M3UyVDxoesgyLo5waUeZwH",
        "counter": 7224496,
        "initiator": {
            "address": "tz1gV3LBv1XmVEkdeRTjuUdurvCf8P85eALM"
        },
        "sender": {
            "alias": "Dexter USDtz/XTZ",
            "address": "KT1Puc9St8wdNoGtLiD2WXaHbWU7styaxYhD"
        },
        "nonce": 0,
        "gasLimit": 0,
        "gasUsed": 10207,
        "storageLimit": 0,
        "storageUsed": 0,
        "bakerFee": 0,
        "storageFee": 0,
        "allocationFee": 0,
        "target": {
            "address": "tz1gV3LBv1XmVEkdeRTjuUdurvCf8P85eALM"
        },
        "amount": 291683372,
        "status": "applied",
        "hasInternals": false
    },
    {
        "type": "transaction",
        "id": 33695759,
        "level": 1165855,
        "timestamp": "2020-10-11T00:06:44Z",
        "block": "BLZYmTkezVieNS5CSgiiZGYheqbCZ1ab2oA9MFPeadDV6VB3C5b",
        "hash": "ooSiihVB3jYX6s91pSZ3Dk5Wuznj3M3UyVDxoesgyLo5waUeZwH",
        "counter": 7224496,
        "sender": {
            "address": "tz1gV3LBv1XmVEkdeRTjuUdurvCf8P85eALM"
        },
        "gasLimit": 482195,
        "gasUsed": 350490,
        "storageLimit": 0,
        "storageUsed": 0,
        "bakerFee": 48597,
        "storageFee": 0,
        "allocationFee": 0,
        "target": {
            "alias": "Dexter USDtz/XTZ",
            "address": "KT1Puc9St8wdNoGtLiD2WXaHbWU7styaxYhD"
        },
        "amount": 0,
        "parameters": "{\"entrypoint\":\"tokenToXtz\",\"value\":{\"prim\":\"Pair\",\"args\":[{\"prim\":\"Pair\",\"args\":[{\"string\":\"tz1gV3LBv1XmVEkdeRTjuUdurvCf8P85eALM\"},{\"string\":\"tz1gV3LBv1XmVEkdeRTjuUdurvCf8P85eALM\"}]},{\"prim\":\"Pair\",\"args\":[{\"int\":\"726896912\"},{\"prim\":\"Pair\",\"args\":[{\"int\":\"281766137\"},{\"string\":\"2020-10-11T00:25:39.425Z\"}]}]}]}}",
        "status": "applied",
        "hasInternals": true
    },
    {
        "type": "transaction",
        "id": 33695758,
        "level": 1165855,
        "timestamp": "2020-10-11T00:06:44Z",
        "block": "BLZYmTkezVieNS5CSgiiZGYheqbCZ1ab2oA9MFPeadDV6VB3C5b",
        "hash": "ooSiihVB3jYX6s91pSZ3Dk5Wuznj3M3UyVDxoesgyLo5waUeZwH",
        "counter": 7224495,
        "sender": {
            "address": "tz1gV3LBv1XmVEkdeRTjuUdurvCf8P85eALM"
        },
        "gasLimit": 119688,
        "gasUsed": 119588,
        "storageLimit": 0,
        "storageUsed": 0,
        "bakerFee": 12347,
        "storageFee": 0,
        "allocationFee": 0,
        "target": {
            "alias": "USDtz",
            "address": "KT1LN4LPSqTMS7Sd2CJw4bbDGRkMv2t68Fy9"
        },
        "amount": 0,
        "parameters": "{\"entrypoint\":\"approve\",\"value\":{\"prim\":\"Pair\",\"args\":[{\"string\":\"KT1Puc9St8wdNoGtLiD2WXaHbWU7styaxYhD\"},{\"int\":\"726896912\"}]}}",
        "status": "applied",
        "hasInternals": false
    }
]
