// Jest Snapshot v1, https://goo.gl/fbAQLP

exports[`Snapshots Renders 1`] = `
.emotion-0 {
  box-sizing: border-box;
  display: -webkit-box;
  display: -webkit-flex;
  display: -ms-flexbox;
  display: flex;
  -webkit-flex: initial;
  -ms-flex: initial;
  flex: initial;
  -webkit-flex-direction: row;
  -ms-flex-direction: row;
  flex-direction: row;
  -webkit-flex-wrap: nowrap;
  -ms-flex-wrap: nowrap;
  flex-wrap: nowrap;
  width: 100%;
  max-width: 100%;
  background: rgba(0,0,0,0.33);
  border: 0px solid #FFFFFF;
  opacity: 1;
  margin-bottom: 0;
  margin-left: 0;
  margin-right: 0;
  margin-top: 0;
  top: 0;
  left: 0;
  height: 100%;
  position: fixed;
  cursor: pointer;
  z-index: 4;
  touch-action: manipulation;
}

.emotion-0:focus {
  outline: 0px solid #FFFFFF;
}

.emotion-0>img {
  max-width: 100%;
  max-height: 100%;
}

.emotion-1 {
  box-sizing: border-box;
  display: -webkit-box;
  display: -webkit-flex;
  display: -ms-flexbox;
  display: flex;
  -webkit-flex: initial;
  -ms-flex: initial;
  flex: initial;
  -webkit-flex-direction: column;
  -ms-flex-direction: column;
  flex-direction: column;
  -webkit-flex-wrap: nowrap;
  -ms-flex-wrap: nowrap;
  flex-wrap: nowrap;
  width: calc(100vw - 20px);
  max-width: calc(100vw - 32px);
  background: #FFFFFF;
  border: 0px solid #FFFFFF;
  opacity: 1;
  margin-bottom: 0;
  margin-left: 0;
  margin-right: 0;
  margin-top: 0;
  padding-bottom: 0;
  padding-left: 18px;
  padding-right: 18px;
  padding-top: 24px;
  top: 108px;
  left: 50%;
  -webkit-align-items: center;
  -webkit-box-align: center;
  -ms-flex-align: center;
  align-items: center;
  border-radius: 16px;
  max-height: calc(100vh - 260px);
  position: fixed;
  z-index: 5;
  -webkit-transform: translateX(-50%);
  -ms-transform: translateX(-50%);
  transform: translateX(-50%);
}

.emotion-1:focus {
  outline: 0px solid #FFFFFF;
}

.emotion-1>img {
  max-width: 100%;
  max-height: 100%;
}

.emotion-2 {
  box-sizing: border-box;
  display: -webkit-box;
  display: -webkit-flex;
  display: -ms-flexbox;
  display: flex;
  -webkit-flex: initial;
  -ms-flex: initial;
  flex: initial;
  -webkit-flex-direction: row;
  -ms-flex-direction: row;
  flex-direction: row;
  -webkit-flex-wrap: nowrap;
  -ms-flex-wrap: nowrap;
  flex-wrap: nowrap;
  width: auto;
  max-width: 100%;
  background: transparent;
  border: 0px solid #FFFFFF;
  opacity: 1;
  margin-bottom: 0;
  margin-left: 0;
  margin-right: 0;
  margin-top: 0;
  top: 22px;
  right: 22px;
  position: absolute;
  cursor: pointer;
  touch-action: manipulation;
}

.emotion-2:focus {
  outline: 0px solid #FFFFFF;
}

.emotion-2>img {
  max-width: 100%;
  max-height: 100%;
}

.emotion-3 {
  width: 12px;
  height: 12px;
}

.emotion-4 {
  box-sizing: border-box;
  display: -webkit-box;
  display: -webkit-flex;
  display: -ms-flexbox;
  display: flex;
  -webkit-flex: initial;
  -ms-flex: initial;
  flex: initial;
  -webkit-flex-direction: row;
  -ms-flex-direction: row;
  flex-direction: row;
  -webkit-flex-wrap: nowrap;
  -ms-flex-wrap: nowrap;
  flex-wrap: nowrap;
  width: auto;
  max-width: 100%;
  background: transparent;
  border: 0px solid #FFFFFF;
  opacity: 1;
  margin-bottom: 0;
  margin-left: 0;
  margin-right: 0;
  margin-top: -24px;
  padding-top: 16px;
  -webkit-align-items: flex-start;
  -webkit-box-align: flex-start;
  -ms-flex-align: flex-start;
  align-items: flex-start;
  overflow-y: auto;
}

.emotion-4:focus {
  outline: 0px solid #FFFFFF;
}

.emotion-4>img {
  max-width: 100%;
  max-height: 100%;
}

.emotion-5 {
  box-sizing: border-box;
  display: -webkit-box;
  display: -webkit-flex;
  display: -ms-flexbox;
  display: flex;
  -webkit-flex: initial;
  -ms-flex: initial;
  flex: initial;
  -webkit-flex-direction: column;
  -ms-flex-direction: column;
  flex-direction: column;
  -webkit-flex-wrap: nowrap;
  -ms-flex-wrap: nowrap;
  flex-wrap: nowrap;
  width: auto;
  max-width: 480px;
  background: transparent;
  border: 0px solid #FFFFFF;
  opacity: 1;
  margin-bottom: 0;
  margin-left: auto;
  margin-right: auto;
  margin-top: 0;
  padding-top: 24px;
  -webkit-align-items: center;
  -webkit-box-align: center;
  -ms-flex-align: center;
  align-items: center;
  -webkit-box-pack: center;
  -webkit-justify-content: center;
  -ms-flex-pack: center;
  justify-content: center;
}

.emotion-5:focus {
  outline: 0px solid #FFFFFF;
}

.emotion-5>img {
  max-width: 100%;
  max-height: 100%;
}

.emotion-6 {
  box-sizing: border-box;
  display: -webkit-box;
  display: -webkit-flex;
  display: -ms-flexbox;
  display: flex;
  -webkit-flex: initial;
  -ms-flex: initial;
  flex: initial;
  -webkit-flex-direction: column;
  -ms-flex-direction: column;
  flex-direction: column;
  -webkit-flex-wrap: nowrap;
  -ms-flex-wrap: nowrap;
  flex-wrap: nowrap;
  width: auto;
  max-width: 312px;
  background: transparent;
  border: 0px solid #FFFFFF;
  opacity: 1;
  margin-bottom: 0;
  margin-left: 0;
  margin-right: 0;
  margin-top: 0;
}

.emotion-6:focus {
  outline: 0px solid #FFFFFF;
}

.emotion-6>img {
  max-width: 100%;
  max-height: 100%;
}

.emotion-7 {
  line-height: 25px;
  font-size: 18px;
  font-weight: 600;
  display: inline-block;
  color: #000000;
  font-family: Source Sans Pro,sans-serif;
  width: auto;
  text-overflow: initial;
  max-width: 100%;
  overflow: visible;
  text-align: center;
}

.emotion-7>* {
  color: #000000;
}

.emotion-8 {
  box-sizing: border-box;
  display: -webkit-box;
  display: -webkit-flex;
  display: -ms-flexbox;
  display: flex;
  -webkit-flex: initial;
  -ms-flex: initial;
  flex: initial;
  -webkit-flex-direction: row;
  -ms-flex-direction: row;
  flex-direction: row;
  -webkit-flex-wrap: nowrap;
  -ms-flex-wrap: nowrap;
  flex-wrap: nowrap;
  width: auto;
  max-width: 100%;
  background: transparent;
  border: 0px solid #FFFFFF;
  opacity: 1;
  margin-bottom: 0;
  margin-left: 0;
  margin-right: 0;
  margin-top: 0;
  height: 7px;
}

.emotion-8:focus {
  outline: 0px solid #FFFFFF;
}

.emotion-8>img {
  max-width: 100%;
  max-height: 100%;
}

.emotion-9 {
  line-height: 22px;
  font-size: 16px;
  display: inline-block;
  color: #82828B;
  font-family: Source Sans Pro,sans-serif;
  width: auto;
  text-overflow: initial;
  max-width: 100%;
  overflow: visible;
  text-align: center;
}

.emotion-9>* {
  color: #82828B;
}

.emotion-10 {
  line-height: 22px;
  font-size: 16px;
  display: inline-block;
  color: #82828B;
  font-family: Source Sans Pro,sans-serif;
  width: auto;
  text-overflow: initial;
  max-width: 100%;
  overflow: visible;
  -webkit-text-decoration: underline;
  text-decoration: underline;
}

.emotion-10>* {
  color: #82828B;
}

.emotion-12 {
  box-sizing: border-box;
  display: -webkit-box;
  display: -webkit-flex;
  display: -ms-flexbox;
  display: flex;
  -webkit-flex: initial;
  -ms-flex: initial;
  flex: initial;
  -webkit-flex-direction: column;
  -ms-flex-direction: column;
  flex-direction: column;
  -webkit-flex-wrap: nowrap;
  -ms-flex-wrap: nowrap;
  flex-wrap: nowrap;
  width: 100%;
  max-width: 100%;
  background: transparent;
  border: 0px solid #FFFFFF;
  opacity: 1;
  margin-bottom: 0;
  margin-left: 0;
  margin-right: 0;
  margin-top: 16px;
  padding-left: 54px;
  padding-right: 54px;
  padding-top: 28px;
  border-radius: 16px;
  background: linear-gradient(180deg,#F6F6FC 0px,#FFFFFF 100%);
}

.emotion-12:focus {
  outline: 0px solid #FFFFFF;
}

.emotion-12>img {
  max-width: 100%;
  max-height: 100%;
}

.emotion-13 {
  width: 100%;
}

.emotion-14 {
  box-sizing: border-box;
  display: -webkit-box;
  display: -webkit-flex;
  display: -ms-flexbox;
  display: flex;
  -webkit-flex: initial;
  -ms-flex: initial;
  flex: initial;
  -webkit-flex-direction: row;
  -ms-flex-direction: row;
  flex-direction: row;
  -webkit-flex-wrap: nowrap;
  -ms-flex-wrap: nowrap;
  flex-wrap: nowrap;
  width: 100%;
  max-width: 100%;
  background: transparent;
  border: 0px solid #FFFFFF;
  opacity: 1;
  margin-bottom: 16px;
  margin-left: 0;
  margin-right: 0;
  margin-top: 14px;
  -webkit-box-pack: center;
  -webkit-justify-content: center;
  -ms-flex-pack: center;
  justify-content: center;
}

.emotion-14:focus {
  outline: 0px solid #FFFFFF;
}

.emotion-14>img {
  max-width: 100%;
  max-height: 100%;
}

.emotion-15 {
  height: 38px;
}

.emotion-16 {
  box-sizing: border-box;
  display: -webkit-box;
  display: -webkit-flex;
  display: -ms-flexbox;
  display: flex;
  -webkit-flex: initial;
  -ms-flex: initial;
  flex: initial;
  -webkit-flex-direction: row;
  -ms-flex-direction: row;
  flex-direction: row;
  -webkit-flex-wrap: nowrap;
  -ms-flex-wrap: nowrap;
  flex-wrap: nowrap;
  width: auto;
  max-width: 100%;
  background: transparent;
  border: 0px solid #FFFFFF;
  opacity: 1;
  margin-bottom: 0;
  margin-left: 0;
  margin-right: 0;
  margin-top: 0;
  min-width: 20px;
}

.emotion-16:focus {
  outline: 0px solid #FFFFFF;
}

.emotion-16>img {
  max-width: 100%;
  max-height: 100%;
}

<div>
  <button
    class="emotion-0"
    type="button"
  />
  <div
    class="emotion-1"
  >
    <button
      class="emotion-2"
      type="button"
    >
      <img
        class="emotion-3"
        src="/icons/close.svg"
      />
    </button>
    <div
      class="emotion-4"
    >
      <div
        class="emotion-5"
      >
        <div
          class="emotion-6"
        >
          <span
            class="text emotion-7"
          >
            Dexter is available on mobile through the Magma Tezos mobile wallet.
          </span>
          <div
            class="emotion-8"
          />
          <span
            class="text emotion-9"
          >
            Mobile users can download 
            <a
              href="https://magmawallet.io/"
              target="_blank"
            >
              <span
                class="text emotion-10"
              >
                Magma
              </span>
            </a>
             - the Dexter-integrated mobile wallet from 
            <a
              href="https://camlcase.io/"
              target="_blank"
            >
              <span
                class="text emotion-10"
              >
                camlCase
              </span>
            </a>
            , the same team behind Dexter.
          </span>
        </div>
        <div
          class="emotion-12"
        >
          <img
            class="emotion-13"
            src="/img/magma-graphic.png"
          />
        </div>
        <div
          class="emotion-14"
        >
          <a
            href="https://apps.apple.com/app/id1512745852"
            target="_blank"
          >
            <img
              class="emotion-15"
              src="/img/app-store.svg"
            />
          </a>
          <div
            class="emotion-16"
          />
          <a
            href="https://play.google.com/store/apps/details?id=io.camlcase.smartwallet"
            target="_blank"
          >
            <img
              class="emotion-15"
              src="/img/google-play.svg"
            />
          </a>
        </div>
      </div>
    </div>
  </div>
</div>
`;
