// Jest Snapshot v1, https://goo.gl/fbAQLP

exports[`Snapshots mtzExchangeBalance 1`] = `
.emotion-0 {
  box-sizing: border-box;
  display: -webkit-box;
  display: -webkit-flex;
  display: -ms-flexbox;
  display: flex;
  -webkit-flex: initial;
  -ms-flex: initial;
  flex: initial;
  -webkit-flex-direction: row;
  -ms-flex-direction: row;
  flex-direction: row;
  -webkit-flex-wrap: nowrap;
  -ms-flex-wrap: nowrap;
  flex-wrap: nowrap;
  width: auto;
  max-width: 100%;
  background: transparent;
  border: 0px solid #FFFFFF;
  opacity: 1;
  margin-bottom: 0;
  margin-left: 0;
  margin-right: 0;
  margin-top: 12px;
  -webkit-box-pack: center;
  -webkit-justify-content: center;
  -ms-flex-pack: center;
  justify-content: center;
}

.emotion-0:focus {
  outline: 0px solid #FFFFFF;
}

.emotion-0>img {
  max-width: 100%;
  max-height: 100%;
}

.emotion-1 {
  box-sizing: border-box;
  display: -webkit-box;
  display: -webkit-flex;
  display: -ms-flexbox;
  display: flex;
  -webkit-flex: initial;
  -ms-flex: initial;
  flex: initial;
  -webkit-flex-direction: row;
  -ms-flex-direction: row;
  flex-direction: row;
  -webkit-flex-wrap: nowrap;
  -ms-flex-wrap: nowrap;
  flex-wrap: nowrap;
  width: auto;
  max-width: 100%;
  background: transparent;
  border: 0px solid #FFFFFF;
  opacity: 1;
  margin-bottom: 0;
  margin-left: 0;
  margin-right: 0;
  margin-top: 0;
  padding-bottom: 4px;
  padding-left: 12px;
  padding-right: 12px;
  padding-top: 4px;
  border-radius: 12px;
  border: 1px solid #979797;
}

.emotion-1:focus {
  outline: 0px solid #FFFFFF;
}

.emotion-1>img {
  max-width: 100%;
  max-height: 100%;
}

.emotion-2 {
  font-weight: 600;
  line-height: 13px;
  font-size: 10px;
  display: inline-block;
  color: #62626E;
  font-family: Source Sans Pro,sans-serif;
  width: auto;
  text-overflow: initial;
  max-width: 100%;
  overflow: visible;
}

.emotion-2>* {
  color: #62626E;
}

<div>
  <div
    class="emotion-0"
  >
    <div
      class="emotion-1"
    >
      <span
        class="text emotion-2"
      >
        0.015238 MTZ = 1 XTZ
      </span>
    </div>
  </div>
</div>
`;

exports[`Snapshots tzgExchangeBalance 1`] = `
.emotion-0 {
  box-sizing: border-box;
  display: -webkit-box;
  display: -webkit-flex;
  display: -ms-flexbox;
  display: flex;
  -webkit-flex: initial;
  -ms-flex: initial;
  flex: initial;
  -webkit-flex-direction: row;
  -ms-flex-direction: row;
  flex-direction: row;
  -webkit-flex-wrap: nowrap;
  -ms-flex-wrap: nowrap;
  flex-wrap: nowrap;
  width: auto;
  max-width: 100%;
  background: transparent;
  border: 0px solid #FFFFFF;
  opacity: 1;
  margin-bottom: 0;
  margin-left: 0;
  margin-right: 0;
  margin-top: 12px;
  -webkit-box-pack: center;
  -webkit-justify-content: center;
  -ms-flex-pack: center;
  justify-content: center;
}

.emotion-0:focus {
  outline: 0px solid #FFFFFF;
}

.emotion-0>img {
  max-width: 100%;
  max-height: 100%;
}

.emotion-1 {
  box-sizing: border-box;
  display: -webkit-box;
  display: -webkit-flex;
  display: -ms-flexbox;
  display: flex;
  -webkit-flex: initial;
  -ms-flex: initial;
  flex: initial;
  -webkit-flex-direction: row;
  -ms-flex-direction: row;
  flex-direction: row;
  -webkit-flex-wrap: nowrap;
  -ms-flex-wrap: nowrap;
  flex-wrap: nowrap;
  width: auto;
  max-width: 100%;
  background: transparent;
  border: 0px solid #FFFFFF;
  opacity: 1;
  margin-bottom: 0;
  margin-left: 0;
  margin-right: 0;
  margin-top: 0;
  padding-bottom: 4px;
  padding-left: 12px;
  padding-right: 12px;
  padding-top: 4px;
  border-radius: 12px;
  border: 1px solid #979797;
}

.emotion-1:focus {
  outline: 0px solid #FFFFFF;
}

.emotion-1>img {
  max-width: 100%;
  max-height: 100%;
}

.emotion-2 {
  font-weight: 600;
  line-height: 13px;
  font-size: 10px;
  display: inline-block;
  color: #62626E;
  font-family: Source Sans Pro,sans-serif;
  width: auto;
  text-overflow: initial;
  max-width: 100%;
  overflow: visible;
}

.emotion-2>* {
  color: #62626E;
}

<div>
  <div
    class="emotion-0"
  >
    <div
      class="emotion-1"
    >
      <span
        class="text emotion-2"
      >
        10000 TZG = 1 XTZ
      </span>
    </div>
  </div>
</div>
`;

exports[`Snapshots tztExchangeBalance 1`] = `
.emotion-0 {
  box-sizing: border-box;
  display: -webkit-box;
  display: -webkit-flex;
  display: -ms-flexbox;
  display: flex;
  -webkit-flex: initial;
  -ms-flex: initial;
  flex: initial;
  -webkit-flex-direction: row;
  -ms-flex-direction: row;
  flex-direction: row;
  -webkit-flex-wrap: nowrap;
  -ms-flex-wrap: nowrap;
  flex-wrap: nowrap;
  width: auto;
  max-width: 100%;
  background: transparent;
  border: 0px solid #FFFFFF;
  opacity: 1;
  margin-bottom: 0;
  margin-left: 0;
  margin-right: 0;
  margin-top: 12px;
  -webkit-box-pack: center;
  -webkit-justify-content: center;
  -ms-flex-pack: center;
  justify-content: center;
}

.emotion-0:focus {
  outline: 0px solid #FFFFFF;
}

.emotion-0>img {
  max-width: 100%;
  max-height: 100%;
}

.emotion-1 {
  box-sizing: border-box;
  display: -webkit-box;
  display: -webkit-flex;
  display: -ms-flexbox;
  display: flex;
  -webkit-flex: initial;
  -ms-flex: initial;
  flex: initial;
  -webkit-flex-direction: row;
  -ms-flex-direction: row;
  flex-direction: row;
  -webkit-flex-wrap: nowrap;
  -ms-flex-wrap: nowrap;
  flex-wrap: nowrap;
  width: auto;
  max-width: 100%;
  background: transparent;
  border: 0px solid #FFFFFF;
  opacity: 1;
  margin-bottom: 0;
  margin-left: 0;
  margin-right: 0;
  margin-top: 0;
  padding-bottom: 4px;
  padding-left: 12px;
  padding-right: 12px;
  padding-top: 4px;
  border-radius: 12px;
  border: 1px solid #979797;
}

.emotion-1:focus {
  outline: 0px solid #FFFFFF;
}

.emotion-1>img {
  max-width: 100%;
  max-height: 100%;
}

.emotion-2 {
  font-weight: 600;
  line-height: 13px;
  font-size: 10px;
  display: inline-block;
  color: #62626E;
  font-family: Source Sans Pro,sans-serif;
  width: auto;
  text-overflow: initial;
  max-width: 100%;
  overflow: visible;
}

.emotion-2>* {
  color: #62626E;
}

<div>
  <div
    class="emotion-0"
  >
    <div
      class="emotion-1"
    >
      <span
        class="text emotion-2"
      >
        98.910891 TZT = 1 XTZ
      </span>
    </div>
  </div>
</div>
`;
