// Jest Snapshot v1, https://goo.gl/fbAQLP

exports[`Snapshots MTZ 1`] = `
.emotion-0 {
  box-sizing: border-box;
  display: -webkit-box;
  display: -webkit-flex;
  display: -ms-flexbox;
  display: flex;
  -webkit-flex: initial;
  -ms-flex: initial;
  flex: initial;
  -webkit-flex-direction: row;
  -ms-flex-direction: row;
  flex-direction: row;
  -webkit-flex-wrap: nowrap;
  -ms-flex-wrap: nowrap;
  flex-wrap: nowrap;
  width: auto;
  max-width: 100%;
  background: transparent;
  border: 0px solid #FFFFFF;
  opacity: 1;
  margin-bottom: 0;
  margin-left: 0;
  margin-right: 8px;
  margin-top: 0;
  cursor: pointer;
  touch-action: manipulation;
}

.emotion-0:focus {
  outline: 0px solid #FFFFFF;
}

.emotion-0>img {
  max-width: 100%;
  max-height: 100%;
}

.emotion-1 {
  box-sizing: border-box;
  display: -webkit-box;
  display: -webkit-flex;
  display: -ms-flexbox;
  display: flex;
  -webkit-flex: initial;
  -ms-flex: initial;
  flex: initial;
  -webkit-flex-direction: row;
  -ms-flex-direction: row;
  flex-direction: row;
  -webkit-flex-wrap: nowrap;
  -ms-flex-wrap: nowrap;
  flex-wrap: nowrap;
  width: auto;
  max-width: 100%;
  background: transparent;
  border: 0px solid #FFFFFF;
  opacity: 1;
  margin-bottom: 0;
  margin-left: 0;
  margin-right: 0;
  margin-top: 0;
  opacity: 1;
}

.emotion-1:focus {
  outline: 0px solid #FFFFFF;
}

.emotion-1>img {
  max-width: 100%;
  max-height: 100%;
}

.emotion-2 {
  width: 19px;
  height: 19px;
}

<div>
  <button
    class="emotion-0"
    type="button"
  >
    <div
      class="emotion-1"
    >
      <img
        class="emotion-2"
        src="/icons/add.svg"
      />
    </div>
  </button>
  <button
    class="emotion-0"
    type="button"
  >
    <div
      class="emotion-1"
    >
      <img
        class="emotion-2"
        src="/icons/remove.svg"
      />
    </div>
  </button>
  <button
    class="emotion-0"
    type="button"
  >
    <div
      class="emotion-1"
    >
      <img
        class="emotion-2"
        src="/icons/exchange.svg"
      />
    </div>
  </button>
</div>
`;

exports[`Snapshots MTZ; No XTZ 1`] = `
.emotion-0 {
  box-sizing: border-box;
  display: -webkit-box;
  display: -webkit-flex;
  display: -ms-flexbox;
  display: flex;
  -webkit-flex: initial;
  -ms-flex: initial;
  flex: initial;
  -webkit-flex-direction: row;
  -ms-flex-direction: row;
  flex-direction: row;
  -webkit-flex-wrap: nowrap;
  -ms-flex-wrap: nowrap;
  flex-wrap: nowrap;
  width: auto;
  max-width: 100%;
  background: transparent;
  border: 0px solid #FFFFFF;
  opacity: 1;
  margin-bottom: 0;
  margin-left: 0;
  margin-right: 8px;
  margin-top: 0;
}

.emotion-0:focus {
  outline: 0px solid #FFFFFF;
}

.emotion-0>img {
  max-width: 100%;
  max-height: 100%;
}

.emotion-1 {
  box-sizing: border-box;
  display: -webkit-box;
  display: -webkit-flex;
  display: -ms-flexbox;
  display: flex;
  -webkit-flex: initial;
  -ms-flex: initial;
  flex: initial;
  -webkit-flex-direction: row;
  -ms-flex-direction: row;
  flex-direction: row;
  -webkit-flex-wrap: nowrap;
  -ms-flex-wrap: nowrap;
  flex-wrap: nowrap;
  width: auto;
  max-width: 100%;
  background: transparent;
  border: 0px solid #FFFFFF;
  opacity: 1;
  margin-bottom: 0;
  margin-left: 0;
  margin-right: 0;
  margin-top: 0;
  opacity: 0.33;
}

.emotion-1:focus {
  outline: 0px solid #FFFFFF;
}

.emotion-1>img {
  max-width: 100%;
  max-height: 100%;
}

.emotion-2 {
  width: 19px;
  height: 19px;
}

.emotion-3 {
  box-sizing: border-box;
  display: -webkit-box;
  display: -webkit-flex;
  display: -ms-flexbox;
  display: flex;
  -webkit-flex: initial;
  -ms-flex: initial;
  flex: initial;
  -webkit-flex-direction: row;
  -ms-flex-direction: row;
  flex-direction: row;
  -webkit-flex-wrap: nowrap;
  -ms-flex-wrap: nowrap;
  flex-wrap: nowrap;
  width: auto;
  max-width: 100%;
  background: transparent;
  border: 0px solid #FFFFFF;
  opacity: 1;
  margin-bottom: 0;
  margin-left: 0;
  margin-right: 8px;
  margin-top: 0;
  cursor: pointer;
  touch-action: manipulation;
}

.emotion-3:focus {
  outline: 0px solid #FFFFFF;
}

.emotion-3>img {
  max-width: 100%;
  max-height: 100%;
}

.emotion-4 {
  box-sizing: border-box;
  display: -webkit-box;
  display: -webkit-flex;
  display: -ms-flexbox;
  display: flex;
  -webkit-flex: initial;
  -ms-flex: initial;
  flex: initial;
  -webkit-flex-direction: row;
  -ms-flex-direction: row;
  flex-direction: row;
  -webkit-flex-wrap: nowrap;
  -ms-flex-wrap: nowrap;
  flex-wrap: nowrap;
  width: auto;
  max-width: 100%;
  background: transparent;
  border: 0px solid #FFFFFF;
  opacity: 1;
  margin-bottom: 0;
  margin-left: 0;
  margin-right: 0;
  margin-top: 0;
  opacity: 1;
}

.emotion-4:focus {
  outline: 0px solid #FFFFFF;
}

.emotion-4>img {
  max-width: 100%;
  max-height: 100%;
}

<div>
  <div
    class="emotion-0"
  >
    <div
      class="emotion-1"
    >
      <img
        class="emotion-2"
        src="/icons/add.svg"
      />
    </div>
  </div>
  <button
    class="emotion-3"
    type="button"
  >
    <div
      class="emotion-4"
    >
      <img
        class="emotion-2"
        src="/icons/remove.svg"
      />
    </div>
  </button>
  <button
    class="emotion-3"
    type="button"
  >
    <div
      class="emotion-4"
    >
      <img
        class="emotion-2"
        src="/icons/exchange.svg"
      />
    </div>
  </button>
</div>
`;

exports[`Snapshots TZG 1`] = `
.emotion-0 {
  box-sizing: border-box;
  display: -webkit-box;
  display: -webkit-flex;
  display: -ms-flexbox;
  display: flex;
  -webkit-flex: initial;
  -ms-flex: initial;
  flex: initial;
  -webkit-flex-direction: row;
  -ms-flex-direction: row;
  flex-direction: row;
  -webkit-flex-wrap: nowrap;
  -ms-flex-wrap: nowrap;
  flex-wrap: nowrap;
  width: auto;
  max-width: 100%;
  background: transparent;
  border: 0px solid #FFFFFF;
  opacity: 1;
  margin-bottom: 0;
  margin-left: 0;
  margin-right: 8px;
  margin-top: 0;
  cursor: pointer;
  touch-action: manipulation;
}

.emotion-0:focus {
  outline: 0px solid #FFFFFF;
}

.emotion-0>img {
  max-width: 100%;
  max-height: 100%;
}

.emotion-1 {
  box-sizing: border-box;
  display: -webkit-box;
  display: -webkit-flex;
  display: -ms-flexbox;
  display: flex;
  -webkit-flex: initial;
  -ms-flex: initial;
  flex: initial;
  -webkit-flex-direction: row;
  -ms-flex-direction: row;
  flex-direction: row;
  -webkit-flex-wrap: nowrap;
  -ms-flex-wrap: nowrap;
  flex-wrap: nowrap;
  width: auto;
  max-width: 100%;
  background: transparent;
  border: 0px solid #FFFFFF;
  opacity: 1;
  margin-bottom: 0;
  margin-left: 0;
  margin-right: 0;
  margin-top: 0;
  opacity: 1;
}

.emotion-1:focus {
  outline: 0px solid #FFFFFF;
}

.emotion-1>img {
  max-width: 100%;
  max-height: 100%;
}

.emotion-2 {
  width: 19px;
  height: 19px;
}

<div>
  <button
    class="emotion-0"
    type="button"
  >
    <div
      class="emotion-1"
    >
      <img
        class="emotion-2"
        src="/icons/add.svg"
      />
    </div>
  </button>
  <button
    class="emotion-0"
    type="button"
  >
    <div
      class="emotion-1"
    >
      <img
        class="emotion-2"
        src="/icons/remove.svg"
      />
    </div>
  </button>
  <button
    class="emotion-0"
    type="button"
  >
    <div
      class="emotion-1"
    >
      <img
        class="emotion-2"
        src="/icons/exchange.svg"
      />
    </div>
  </button>
</div>
`;
