// Jest Snapshot v1, https://goo.gl/fbAQLP

exports[`Snapshots Renders 1`] = `
.emotion-0 {
  box-sizing: border-box;
  display: -webkit-box;
  display: -webkit-flex;
  display: -ms-flexbox;
  display: flex;
  -webkit-flex: initial;
  -ms-flex: initial;
  flex: initial;
  -webkit-flex-direction: row;
  -ms-flex-direction: row;
  flex-direction: row;
  -webkit-flex-wrap: nowrap;
  -ms-flex-wrap: nowrap;
  flex-wrap: nowrap;
  width: auto;
  max-width: 100%;
  background: transparent;
  border: 0px solid #FFFFFF;
  opacity: 1;
  margin-bottom: 0;
  margin-left: 0;
  margin-right: 0;
  margin-top: 0;
  position: relative;
}

.emotion-0:focus {
  outline: 0px solid #FFFFFF;
}

.emotion-0>img {
  max-width: 100%;
  max-height: 100%;
}

.emotion-1 {
  box-sizing: border-box;
  display: -webkit-box;
  display: -webkit-flex;
  display: -ms-flexbox;
  display: flex;
  -webkit-flex: initial;
  -ms-flex: initial;
  flex: initial;
  -webkit-flex-direction: row;
  -ms-flex-direction: row;
  flex-direction: row;
  -webkit-flex-wrap: nowrap;
  -ms-flex-wrap: nowrap;
  flex-wrap: nowrap;
  width: 100%;
  max-width: 100%;
  background: transparent;
  border: 0px solid #FFFFFF;
  opacity: 1;
  margin-bottom: 0;
  margin-left: 0;
  margin-right: 0;
  margin-top: 0;
  top: 0;
  left: 0;
  bottom: 0;
  right: 0;
  position: fixed;
  cursor: pointer;
  z-index: 2;
  touch-action: manipulation;
  cursor: default!important;
}

.emotion-1:focus {
  outline: 0px solid #FFFFFF;
}

.emotion-1>img {
  max-width: 100%;
  max-height: 100%;
}

.emotion-2 {
  box-sizing: border-box;
  display: -webkit-box;
  display: -webkit-flex;
  display: -ms-flexbox;
  display: flex;
  -webkit-flex: initial;
  -ms-flex: initial;
  flex: initial;
  -webkit-flex-direction: column;
  -ms-flex-direction: column;
  flex-direction: column;
  -webkit-flex-wrap: nowrap;
  -ms-flex-wrap: nowrap;
  flex-wrap: nowrap;
  width: auto;
  max-width: initial;
  background: #FFFFFF;
  border: 0px solid #FFFFFF;
  opacity: 1;
  margin-bottom: 0;
  margin-left: 0;
  margin-right: 0;
  margin-top: 0;
  top: -40px;
  border-radius: 8px;
  overflow: hidden;
  position: absolute;
  z-index: 3;
  box-shadow: 0 2px 10px 0 rgba(0,0,0,0.25);
}

.emotion-2:focus {
  outline: 0px solid #FFFFFF;
}

.emotion-2>img {
  max-width: 100%;
  max-height: 100%;
}

.emotion-3 {
  box-sizing: border-box;
  display: -webkit-box;
  display: -webkit-flex;
  display: -ms-flexbox;
  display: flex;
  -webkit-flex: initial;
  -ms-flex: initial;
  flex: initial;
  -webkit-flex-direction: row;
  -ms-flex-direction: row;
  flex-direction: row;
  -webkit-flex-wrap: nowrap;
  -ms-flex-wrap: nowrap;
  flex-wrap: nowrap;
  width: auto;
  max-width: 100%;
  background: transparent;
  border: 0px solid #FFFFFF;
  opacity: 1;
  margin-bottom: 0;
  margin-left: 0;
  margin-right: 0;
  margin-top: 0;
  padding-bottom: 8px;
  padding-left: 14px;
  padding-right: 16px;
  padding-top: 8px;
  -webkit-align-items: center;
  -webkit-box-align: center;
  -ms-flex-align: center;
  align-items: center;
}

.emotion-3:focus {
  outline: 0px solid #FFFFFF;
}

.emotion-3>img {
  max-width: 100%;
  max-height: 100%;
}

.emotion-4 {
  line-height: 13px;
  font-size: 10px;
  display: inline-block;
  color: #82828B;
  font-family: Source Sans Pro,sans-serif;
  width: auto;
  text-overflow: initial;
  max-width: 100%;
  overflow: visible;
  font-size: 18px;
}

.emotion-4>* {
  color: #82828B;
}

.emotion-5 {
  box-sizing: border-box;
  display: -webkit-box;
  display: -webkit-flex;
  display: -ms-flexbox;
  display: flex;
  -webkit-flex: initial;
  -ms-flex: initial;
  flex: initial;
  -webkit-flex-direction: row;
  -ms-flex-direction: row;
  flex-direction: row;
  -webkit-flex-wrap: nowrap;
  -ms-flex-wrap: nowrap;
  flex-wrap: nowrap;
  width: 14px;
  max-width: 100%;
  background: transparent;
  border: 0px solid #FFFFFF;
  opacity: 1;
  margin-bottom: 0;
  margin-left: 0;
  margin-right: 0;
  margin-top: 0;
}

.emotion-5:focus {
  outline: 0px solid #FFFFFF;
}

.emotion-5>img {
  max-width: 100%;
  max-height: 100%;
}

.emotion-6 {
  border-width: 0px;
  outline-style: none;
  background-color: transparent;
  color: #000000;
  width: 150px;
  line-height: 25px;
  font-size: 18px;
  font-weight: 600;
}

.emotion-6::-webkit-input-placeholder {
  color: #82828B;
}

.emotion-6::-moz-placeholder {
  color: #82828B;
}

.emotion-6:-ms-input-placeholder {
  color: #82828B;
}

.emotion-6::placeholder {
  color: #82828B;
}

.emotion-7 {
  box-sizing: border-box;
  display: -webkit-box;
  display: -webkit-flex;
  display: -ms-flexbox;
  display: flex;
  -webkit-flex: initial;
  -ms-flex: initial;
  flex: initial;
  -webkit-flex-direction: row;
  -ms-flex-direction: row;
  flex-direction: row;
  -webkit-flex-wrap: nowrap;
  -ms-flex-wrap: nowrap;
  flex-wrap: nowrap;
  width: auto;
  max-width: 100%;
  background: transparent;
  border: 0px solid #FFFFFF;
  opacity: 1;
  margin-bottom: 0;
  margin-left: 0;
  margin-right: 0;
  margin-top: 0;
  padding-bottom: 8px;
  padding-left: 12px;
  padding-right: 16px;
  padding-top: 8px;
  -webkit-align-items: center;
  -webkit-box-align: center;
  -ms-flex-align: center;
  align-items: center;
  -webkit-box-pack: justify;
  -webkit-justify-content: space-between;
  -ms-flex-pack: justify;
  justify-content: space-between;
  cursor: pointer;
  touch-action: manipulation;
  border-top: 1px solid #E6E6E6;
}

.emotion-7:focus {
  outline: 0px solid #FFFFFF;
}

.emotion-7>img {
  max-width: 100%;
  max-height: 100%;
}

.emotion-7:hover {
  background: #FAFAFF;
}

.emotion-8 {
  box-sizing: border-box;
  display: -webkit-box;
  display: -webkit-flex;
  display: -ms-flexbox;
  display: flex;
  -webkit-flex: initial;
  -ms-flex: initial;
  flex: initial;
  -webkit-flex-direction: row;
  -ms-flex-direction: row;
  flex-direction: row;
  -webkit-flex-wrap: nowrap;
  -ms-flex-wrap: nowrap;
  flex-wrap: nowrap;
  width: auto;
  max-width: 100%;
  background: transparent;
  border: 0px solid #FFFFFF;
  opacity: 1;
  margin-bottom: 0;
  margin-left: 0;
  margin-right: 0;
  margin-top: 0;
  -webkit-align-items: center;
  -webkit-box-align: center;
  -ms-flex-align: center;
  align-items: center;
}

.emotion-8:focus {
  outline: 0px solid #FFFFFF;
}

.emotion-8>img {
  max-width: 100%;
  max-height: 100%;
}

.emotion-9 {
  box-sizing: border-box;
  display: -webkit-box;
  display: -webkit-flex;
  display: -ms-flexbox;
  display: flex;
  -webkit-flex: initial;
  -ms-flex: initial;
  flex: initial;
  -webkit-flex-direction: row;
  -ms-flex-direction: row;
  flex-direction: row;
  -webkit-flex-wrap: nowrap;
  -ms-flex-wrap: nowrap;
  flex-wrap: nowrap;
  width: 24px;
  max-width: 100%;
  background: transparent;
  border: 0px solid #FFFFFF;
  opacity: 1;
  margin-bottom: 0;
  margin-left: 0;
  margin-right: 0;
  margin-top: 0;
  -webkit-flex-shrink: 0;
  -ms-flex-negative: 0;
  flex-shrink: 0;
  height: 24px;
  position: relative;
}

.emotion-9:focus {
  outline: 0px solid #FFFFFF;
}

.emotion-9>img {
  max-width: 100%;
  max-height: 100%;
}

.emotion-10 {
  width: 100%;
}

.emotion-11 {
  box-sizing: border-box;
  display: -webkit-box;
  display: -webkit-flex;
  display: -ms-flexbox;
  display: flex;
  -webkit-flex: initial;
  -ms-flex: initial;
  flex: initial;
  -webkit-flex-direction: column;
  -ms-flex-direction: column;
  flex-direction: column;
  -webkit-flex-wrap: nowrap;
  -ms-flex-wrap: nowrap;
  flex-wrap: nowrap;
  width: auto;
  max-width: 100%;
  background: transparent;
  border: 0px solid #FFFFFF;
  opacity: 1;
  margin-bottom: 0;
  margin-left: 12px;
  margin-right: 0;
  margin-top: 0;
  -webkit-align-items: flex-start;
  -webkit-box-align: flex-start;
  -ms-flex-align: flex-start;
  align-items: flex-start;
  -webkit-box-pack: center;
  -webkit-justify-content: center;
  -ms-flex-pack: center;
  justify-content: center;
}

.emotion-11:focus {
  outline: 0px solid #FFFFFF;
}

.emotion-11>img {
  max-width: 100%;
  max-height: 100%;
}

.emotion-12 {
  line-height: 25px;
  font-size: 18px;
  font-weight: 600;
  display: inline-block;
  color: #000000;
  font-family: Source Sans Pro,sans-serif;
  width: auto;
  text-overflow: initial;
  max-width: 100%;
  overflow: visible;
  white-space: nowrap;
}

.emotion-12>* {
  color: #000000;
}

.emotion-13 {
  line-height: 13px;
  font-size: 10px;
  display: inline-block;
  color: #82828B;
  font-family: Source Sans Pro,sans-serif;
  width: auto;
  text-overflow: initial;
  max-width: 100%;
  overflow: visible;
  white-space: nowrap;
}

.emotion-13>* {
  color: #82828B;
}

<div>
  <div
    class="emotion-0"
  >
    <button
      class="emotion-1"
      type="button"
    />
    <div
      class="emotion-2"
    >
      <div
        class="emotion-3"
      >
        <span
          class="text emotion-4"
        >
          <i
            class="icon-magnifying-glass"
          />
        </span>
        <div
          class="emotion-5"
        />
        <input
          class="emotion-6"
          placeholder="Search token"
          value=""
        />
      </div>
      <button
        class="emotion-7"
        type="button"
      >
        <div
          class="emotion-8"
        >
          <div
            class="emotion-9"
          >
            <img
              class="emotion-10"
              src="/img/"
            />
          </div>
          <div
            class="emotion-11"
          >
            <span
              class="text emotion-12"
            >
              MTZ
            </span>
            <span
              class="text emotion-13"
            />
          </div>
        </div>
      </button>
      <button
        class="emotion-7"
        type="button"
      >
        <div
          class="emotion-8"
        >
          <div
            class="emotion-9"
          >
            <img
              class="emotion-10"
              src="/img/"
            />
          </div>
          <div
            class="emotion-11"
          >
            <span
              class="text emotion-12"
            >
              TZT
            </span>
            <span
              class="text emotion-13"
            />
          </div>
        </div>
      </button>
      <button
        class="emotion-7"
        type="button"
      >
        <div
          class="emotion-8"
        >
          <div
            class="emotion-9"
          >
            <img
              class="emotion-10"
              src="/img/"
            />
          </div>
          <div
            class="emotion-11"
          >
            <span
              class="text emotion-12"
            >
              TZG
            </span>
            <span
              class="text emotion-13"
            />
          </div>
        </div>
      </button>
      <button
        class="emotion-7"
        type="button"
      >
        <div
          class="emotion-8"
        >
          <div
            class="emotion-9"
          >
            <img
              class="emotion-10"
              src="/img/tezos.png"
            />
          </div>
          <div
            class="emotion-11"
          >
            <span
              class="text emotion-12"
            >
              XTZ
            </span>
            <span
              class="text emotion-13"
            >
              Tez
            </span>
          </div>
        </div>
      </button>
    </div>
  </div>
</div>
`;
